<?xml version="1.0" encoding="UTF-8" standalone="no"?>
<svg:svg
   xmlns:dc="http://purl.org/dc/elements/1.1/"
   xmlns:cc="http://creativecommons.org/ns#"
   xmlns:rdf="http://www.w3.org/1999/02/22-rdf-syntax-ns#"
   xmlns:svg="http://www.w3.org/2000/svg"
   xmlns:sodipodi="http://sodipodi.sourceforge.net/DTD/sodipodi-0.dtd"
   xmlns:inkscape="http://www.inkscape.org/namespaces/inkscape"
   height="211.86206"
   viewBox="-96 0 191.99999 191.99999"
   width="211.86206"
   class=""
   id="svg2"
   version="1.1"
   inkscape:version="0.91 r13725"
   sodipodi:docname="marker.svg">
  <svg:metadata
     id="metadata18">
    <rdf:RDF>
      <cc:Work
         rdf:about="">
        <dc:format>image/svg+xml</dc:format>
        <dc:type
           rdf:resource="http://purl.org/dc/dcmitype/StillImage" />
        <dc:title></dc:title>
      </cc:Work>
    </rdf:RDF>
  </svg:metadata>
  <svg:defs
     id="defs16" />
  <sodipodi:namedview
     pagecolor="#ffffff"
     bordercolor="#666666"
     borderopacity="1"
     objecttolerance="10"
     gridtolerance="10"
     guidetolerance="10"
     inkscape:pageopacity="0"
     inkscape:pageshadow="2"
     inkscape:window-width="1340"
     inkscape:window-height="682"
     id="namedview14"
     showgrid="false"
     fit-margin-top="0"
     fit-margin-left="0"
     fit-margin-right="0"
     fit-margin-bottom="0"
     inkscape:zoom="0.4609375"
     inkscape:cx="-143.56049"
     inkscape:cy="-44.137932"
     inkscape:window-x="1204"
     inkscape:window-y="323"
     inkscape:window-maximized="0"
     inkscape:current-layer="g4" />
  <svg:g
     id="g4"
     transform="translate(-136,0)">
    <script
       id="tinyhippos-injected" />
    <svg:path
       d="m 232,96 c 0,53.01953 -42.98047,96 -96,96 C 82.980469,192 40,149.01953 40,96 40,42.980469 82.980469,0 136,0 c 53.01953,0 96,42.980469 96,96 z m 0,0"
       data-original="#AD2943"
       class=""
       data-old_color="#ad2943"
       style="fill:#3c949a"
       id="path10"
       inkscape:connector-curvature="0" />
    <svg:path
       d="m 200,96 c 0,35.34766 -28.65234,64 -64,64 -35.34766,0 -64,-28.65234 -64,-64 0,-35.347656 28.65234,-64 64,-64 35.34766,0 64,28.652344 64,64 z m 0,0"
       data-original="#EE3446"
       class="active-path"
       data-old_color="#ee3446"
       style="fill:#46ebcb"
       id="path12"
       inkscape:connector-curvature="0" />
  </svg:g>
</svg:svg>
